beset: Easy cross-validation of GLMs
…
So the smaller the number of folds, the more pessimistic your estimates of prediction error will be. (Note above how the predicted deviance explained is a bit lower when 5 folds is used as opposed to 10.) But the more confident you can be that your model will meet or exceed this estimate. Overall, 10-fold cross-validation is recognized as an optimal compromise for this bias-variance tradeoff (Kohavi, 1995), which is why it is used by default. However, LOOCV may be preferrable when the data distributions are characterized by wide dispersion or extreme values (Japkowics & Shah, 2011).

As for the number of repetitions, it is a good idea to evaluate how sensitive your cross-validation estimates are to different random splits of the data. You want to perform enough repetitions so that your mean estimate is stable. (You get roughly the same result no matter what value you choose for seed.) 10 repetitions has been recommended for 10-fold cross-validation (Bouckaert, 2003) and is used as the default value.

Obtaining hold-out predictions and fold assignments

The hold-out predictions of the cross-validation procedure and the corresponding fold-assignments can be obtained by assigning a variable name to the object returned by validate:

cv_results <- validate(lin_mod)

The predictions are stored as a data frame named “predictions”. The rows correspond to the equivalent rows of the data frame used to fit the model, and there is a column for each repetition of the cross-validation procedure. Going across columns within a row you can see the variability of the prediction for that individual as a function of fitting the model to different subsamples of the data (none of which included that individual):

cv_results$predictions

## # A tibble: 47 x 10
##     Rep1  Rep2  Rep3  Rep4  Rep5  Rep6  Rep7  Rep8  Rep9 Rep10
##    <dbl> <dbl> <dbl> <dbl> <dbl> <dbl> <dbl> <dbl> <dbl> <dbl>
##  1  72.9  73.6  73.2  72.7  73.7  73.5  73.6  73.6  72.5  73.0
##  2  83.1  82.7  83.7  81.3  81.9  83.5  83.4  82.4  82.2  83.0
##  3  84.3  85.1  84.6  84.6  85.9  84.6  85.9  85.7  84.9  84.5
##  4  76.4  76.2  76.2  76.4  76.9  75.1  76.0  76.0  76.4  76.1
##  5  63.8  63.6  63.2  63.1  63.5  63.4  64.6  64.6  63.5  64.3
##  6  96.2  93.6  94.3  94.2  94.4  93.5  93.8  94.5  94.3  94.4
##  7  77.0  79.9  79.2  78.0  78.9  78.7  79.1  79.0  79.3  80.1
##  8  81.1  80.0  80.5  80.1  80.7  79.5  79.5  80.0  78.1  79.9
##  9  80.3  81.1  81.7  81.5  81.4  81.3  80.8  80.8  81.2  81.7
## 10  79.6  77.7  79.4  79.4  80.1  79.8  79.4  80.3  79.5  79.2
## # ... with 37 more rows

The fold assignments are stored as a data frame named “fold_assignments”. The values indicate the number of the fold that the case was assigned to; within a repetition, cases with the same fold number make up one of the hold-out data sets (and all cases not having that number were used to train a model to predict that hold-out set):

cv_results$fold_assignments

## # A tibble: 47 x 10
##     Rep1  Rep2  Rep3  Rep4  Rep5  Rep6  Rep7  Rep8  Rep9 Rep10
##    <int> <int> <int> <int> <int> <int> <int> <int> <int> <int>
##  1    10     7    10     1     2     9     2     8     3     9
##  2     9     9     7     5     3     1     9     9     1     5
##  3     3     5     3     7    10     7     3     1     9     1
##  4     6     3     4     6     6     4    10     2     6     4
##  5     4    10     5     9     1     3     8     3     4     3
##  6     8     2     9    10     7    10     1     4    10     7
##  7     5     4     8     4     5     6     7     7     2     6
##  8     1     1     1     8     4     5     5     5     8     2
##  9     2     8     6     3     8     8     4    10     7    10
## 10     7     6     2     2     9     2     6     6     5     8
## # ... with 37 more rows
…
